<svg width="8px" height="8px" viewBox="0 0 8 8" version="1.1" xmlns="http://www.w3.org/2000/svg" xmlns:xlink="http://www.w3.org/1999/xlink">
    <g stroke="none" stroke-width="1" fill="none" fill-rule="evenodd">
        <g transform="translate(-1138.000000, -458.000000)" fill="#000" fill-rule="nonzero">
            <g transform="translate(1135.000000, 447.000000)">
                <path d="M7.69606781,14.4460678 L12.0710678,14.4460678 L12.0710678,15.6960678 L7.69606781,15.6960678 L7.69606781,20.0710678 L6.44606781,20.0710678 L6.44606781,15.6960678 L2.07106781,15.6960678 L2.07106781,14.4460678 L6.44606781,14.4460678 L6.44606781,10.0710678 L7.69606781,10.0710678 L7.69606781,14.4460678 Z" id="Combined-Shape-Copy" transform="translate(7.071068, 15.071068) rotate(-45.000000) translate(-7.071068, -15.071068) "></path>
            </g>
        </g>
    </g>
</svg>